\relax 
\providecommand\hyper@newdestlabel[2]{}
\catcode `"\active 
\providecommand\HyperFirstAtBeginDocument{\AtBeginDocument}
\HyperFirstAtBeginDocument{\ifx\hyper@anchor\@undefined
\global\let\oldcontentsline\contentsline
\gdef\contentsline#1#2#3#4{\oldcontentsline{#1}{#2}{#3}}
\global\let\oldnewlabel\newlabel
\gdef\newlabel#1#2{\newlabelxx{#1}#2}
\gdef\newlabelxx#1#2#3#4#5#6{\oldnewlabel{#1}{{#2}{#3}}}
\AtEndDocument{\ifx\hyper@anchor\@undefined
\let\contentsline\oldcontentsline
\let\newlabel\oldnewlabel
\fi}
\fi}
\global\let\hyper@last\relax 
\gdef\HyperFirstAtBeginDocument#1{#1}
\providecommand*\HyPL@Entry[1]{}
\@input{title.aux}
\HyPL@Entry{0<</S/D>>}
\select@language {ukrainian}
\@writefile{toc}{\select@language {ukrainian}}
\@writefile{lof}{\select@language {ukrainian}}
\@writefile{lot}{\select@language {ukrainian}}
\@input{content.aux}
\newlabel{LastPage}{{}{6}{}{page.6}{}}
\xdef\lastpage@lastpage{6}
\xdef\lastpage@lastpageHy{6}
\gdef\totfig{0}\gdef\tottab{0}\gdef\totref{0}
\expandafter\ifx\csname c@citenum@totc\endcsname\relax\newcounter{citenum@totc}\fi\setcounter{citenum@totc}{0}
